out.vcd
$date
	Thu Jul  2 12:47:06 2020
$end
$version
	Icarus Verilog
$end
$timescale
	1s
$end
$scope module flopenr $end
$var wire 1 ! clk $end
$var wire 8 " d [7:0] $end
$var wire 1 # en $end
$var wire 1 $ reset $end
$var reg 8 % q [7:0] $end
$upscope $end
$scope module testbench $end
$var wire 32 & writedata [31:0] $end
$var wire 1 ' memwrite $end
$var wire 32 ( dataadr [31:0] $end
$var reg 1 ) clk $end
$var reg 1 * reset $end
$scope module dut $end
$var wire 1 ) clk $end
$var wire 1 * reset $end
$var wire 32 + writedata [31:0] $end
$var wire 32 , readdata [31:0] $end
$var wire 32 - pc [31:0] $end
$var wire 1 ' memwrite $end
$var wire 32 . instr [31:0] $end
$var wire 32 / dataadr [31:0] $end
$scope module dmem $end
$var wire 1 ) clk $end
$var wire 32 0 rd [31:0] $end
$var wire 1 ' we $end
$var wire 32 1 wd [31:0] $end
$var wire 32 2 a [31:0] $end
$upscope $end
$scope module imem $end
$var wire 6 3 a [5:0] $end
$var wire 32 4 rd [31:0] $end
$upscope $end
$scope module mips $end
$var wire 1 ) clk $end
$var wire 32 5 instr [31:0] $end
$var wire 32 6 readdata [31:0] $end
$var wire 1 * reset $end
$var wire 1 7 zero $end
$var wire 32 8 writedata [31:0] $end
$var wire 1 9 regwrite $end
$var wire 1 : regdst $end
$var wire 1 ; pcsrc $end
$var wire 32 < pc [31:0] $end
$var wire 1 ' memwrite $end
$var wire 1 = memtoreg $end
$var wire 1 > jump $end
$var wire 1 ? alusrc $end
$var wire 32 @ aluout [31:0] $end
$var wire 4 A alucontrol [3:0] $end
$scope module c $end
$var wire 6 B funct [5:0] $end
$var wire 6 C op [5:0] $end
$var wire 1 ; pcsrc $end
$var wire 1 7 zero $end
$var wire 1 9 regwrite $end
$var wire 1 : regdst $end
$var wire 1 ' memwrite $end
$var wire 1 = memtoreg $end
$var wire 1 > jump $end
$var wire 1 D branch $end
$var wire 1 ? alusrc $end
$var wire 2 E aluop [1:0] $end
$var wire 4 F alucontrol [3:0] $end
$scope module ad $end
$var wire 6 G funct [5:0] $end
$var wire 2 H aluop [1:0] $end
$var reg 4 I alucontrol [3:0] $end
$upscope $end
$scope module md $end
$var wire 6 J op [5:0] $end
$var wire 1 9 regwrite $end
$var wire 1 : regdst $end
$var wire 1 ' memwrite $end
$var wire 1 = memtoreg $end
$var wire 1 > jump $end
$var wire 1 D branch $end
$var wire 1 ? alusrc $end
$var wire 2 K aluop [1:0] $end
$var reg 9 L controls [8:0] $end
$upscope $end
$upscope $end
$scope module dp $end
$var wire 4 M alucontrol [3:0] $end
$var wire 1 ? alusrc $end
$var wire 1 ) clk $end
$var wire 32 N instr [31:0] $end
$var wire 1 > jump $end
$var wire 1 = memtoreg $end
$var wire 1 ; pcsrc $end
$var wire 32 O readdata [31:0] $end
$var wire 1 : regdst $end
$var wire 1 9 regwrite $end
$var wire 1 * reset $end
$var wire 1 7 zero $end
$var wire 5 P writereg [4:0] $end
$var wire 32 Q writedata [31:0] $end
$var wire 32 R srcb [31:0] $end
$var wire 32 S srca [31:0] $end
$var wire 32 T signimmsh [31:0] $end
$var wire 32 U signimm [31:0] $end
$var wire 32 V result [31:0] $end
$var wire 32 W pcplus4 [31:0] $end
$var wire 32 X pcnextbr [31:0] $end
$var wire 32 Y pcnext [31:0] $end
$var wire 32 Z pcbranch [31:0] $end
$var wire 32 [ pc [31:0] $end
$var wire 32 \ aluout [31:0] $end
$scope module alu $end
$var wire 32 ] AandB [31:0] $end
$var wire 4 ^ AluOp [3:0] $end
$var wire 32 _ AorB [31:0] $end
$var wire 32 ` AxorB [31:0] $end
$var wire 1 7 Zero $end
$var wire 32 a selLog [31:0] $end
$var wire 32 b selB [31:0] $end
$var wire 32 c selArit [31:0] $end
$var wire 32 d minusB [31:0] $end
$var wire 32 e Result [31:0] $end
$var wire 32 f B [31:0] $end
$var wire 32 g AplusB [31:0] $end
$var wire 32 h AlessthanB [31:0] $end
$var wire 32 i A [31:0] $end
$scope module apb $end
$var wire 32 j Sum [31:0] $end
$var wire 32 k Sb [31:0] $end
$var wire 32 l Sa [31:0] $end
$var wire 33 m Aux [32:0] $end
$upscope $end
$scope module mxArit $end
$var wire 32 n d0 [31:0] $end
$var wire 1 o s $end
$var wire 32 p y [31:0] $end
$var wire 32 q d1 [31:0] $end
$upscope $end
$scope module mxB $end
$var wire 32 r d1 [31:0] $end
$var wire 1 s s $end
$var wire 32 t y [31:0] $end
$var wire 32 u d0 [31:0] $end
$upscope $end
$scope module mxLog $end
$var wire 32 v d0 [31:0] $end
$var wire 32 w d1 [31:0] $end
$var wire 32 x d2 [31:0] $end
$var wire 32 y d3 [31:0] $end
$var wire 2 z s [1:0] $end
$var wire 32 { y [31:0] $end
$var wire 32 | n1 [31:0] $end
$var wire 32 } n0 [31:0] $end
$scope module mm0 $end
$var wire 32 ~ d0 [31:0] $end
$var wire 32 !" d1 [31:0] $end
$var wire 1 "" s $end
$var wire 32 #" y [31:0] $end
$upscope $end
$scope module mm1 $end
$var wire 32 $" d0 [31:0] $end
$var wire 32 %" d1 [31:0] $end
$var wire 1 &" s $end
$var wire 32 '" y [31:0] $end
$upscope $end
$scope module mmm $end
$var wire 32 (" d0 [31:0] $end
$var wire 32 )" d1 [31:0] $end
$var wire 1 *" s $end
$var wire 32 +" y [31:0] $end
$upscope $end
$upscope $end
$scope module mxfinal $end
$var wire 32 ," d0 [31:0] $end
$var wire 32 -" d1 [31:0] $end
$var wire 1 ." s $end
$var wire 32 /" y [31:0] $end
$upscope $end
$scope module slt $end
$var wire 1 0" bitIn $end
$var wire 32 1" wordOut [31:0] $end
$upscope $end
$upscope $end
$scope module immsh $end
$var wire 32 2" y [31:0] $end
$var wire 32 3" a [31:0] $end
$upscope $end
$scope module pcadd1 $end
$var wire 32 4" b [31:0] $end
$var wire 32 5" y [31:0] $end
$var wire 32 6" a [31:0] $end
$upscope $end
$scope module pcadd2 $end
$var wire 32 7" a [31:0] $end
$var wire 32 8" b [31:0] $end
$var wire 32 9" y [31:0] $end
$upscope $end
$scope module pcbrmux $end
$var wire 32 :" d0 [31:0] $end
$var wire 32 ;" d1 [31:0] $end
$var wire 1 ; s $end
$var wire 32 <" y [31:0] $end
$upscope $end
$scope module pcmux $end
$var wire 32 =" d0 [31:0] $end
$var wire 32 >" d1 [31:0] $end
$var wire 1 > s $end
$var wire 32 ?" y [31:0] $end
$upscope $end
$scope module pcreg $end
$var wire 1 ) clk $end
$var wire 32 @" d [31:0] $end
$var wire 1 * reset $end
$var reg 32 A" q [31:0] $end
$upscope $end
$scope module resmux $end
$var wire 32 B" d0 [31:0] $end
$var wire 32 C" d1 [31:0] $end
$var wire 1 = s $end
$var wire 32 D" y [31:0] $end
$upscope $end
$scope module rf $end
$var wire 1 ) clk $end
$var wire 5 E" ra1 [4:0] $end
$var wire 5 F" ra2 [4:0] $end
$var wire 32 G" wd3 [31:0] $end
$var wire 1 9 we3 $end
$var wire 5 H" wa3 [4:0] $end
$var wire 32 I" rd2 [31:0] $end
$var wire 32 J" rd1 [31:0] $end
$upscope $end
$scope module se $end
$var wire 16 K" a [15:0] $end
$var wire 32 L" y [31:0] $end
$upscope $end
$scope module srcbmux $end
$var wire 32 M" d0 [31:0] $end
$var wire 32 N" d1 [31:0] $end
$var wire 1 ? s $end
$var wire 32 O" y [31:0] $end
$upscope $end
$scope module wrmux $end
$var wire 5 P" d0 [4:0] $end
$var wire 5 Q" d1 [4:0] $end
$var wire 1 : s $end
$var wire 5 R" y [4:0] $end
$upscope $end
$upscope $end
$upscope $end
$upscope $end
$upscope $end
$enddefinitions $end
#0
$dumpvars
b10 R"
b0 Q"
b10 P"
b101 O"
b101 N"
bx M"
b101 L"
b101 K"
b0 J"
bx I"
b10 H"
b101 G"
b10 F"
b0 E"
b101 D"
bx C"
b101 B"
b0 A"
b100 @"
b100 ?"
b10000000000000010100 >"
b100 ="
b100 <"
b11000 ;"
b100 :"
b11000 9"
b10100 8"
b100 7"
b0 6"
b100 5"
b100 4"
b101 3"
b10100 2"
b0 1"
00"
b101 /"
0."
b0 -"
b101 ,"
b0 +"
0*"
b101 )"
b0 ("
b101 '"
0&"
b11111111111111111111111111111010 %"
b101 $"
b0 #"
0""
b101 !"
b0 ~
b0 }
b101 |
b0 {
b0 z
b11111111111111111111111111111010 y
b101 x
b101 w
b0 v
b101 u
b101 t
0s
b11111111111111111111111111111011 r
b0 q
b101 p
0o
b101 n
b101 m
b0 l
b101 k
b101 j
b0 i
b0 h
b101 g
b101 f
b101 e
b11111111111111111111111111111011 d
b101 c
b101 b
b0 a
b101 `
b101 _
b0 ^
b0 ]
b101 \
b0 [
b11000 Z
b100 Y
b100 X
b100 W
b101 V
b101 U
b10100 T
b0 S
b101 R
bx Q
b10 P
bx O
b100000000000100000000000000101 N
b0 M
b101000000 L
b0 K
b1000 J
b0 I
b0 H
b101 G
b0 F
b0 E
0D
b1000 C
b101 B
b0 A
b101 @
1?
0>
0=
b0 <
0;
0:
19
bx 8
07
bx 6
b100000000000100000000000000101 5
b100000000000100000000000000101 4
b0 3
b101 2
bx 1
bx 0
b101 /
b100000000000100000000000000101 .
b0 -
bx ,
bx +
1*
1)
b101 (
0'
bx &
bx %
z$
z#
bz "
z!
$end
#5
0)
#10
b101 &
b101 +
b101 1
b101 8
b101 Q
b101 I"
b101 M"
1)
#15
0)
#20
1)
#22
0*
#25
0)
#30
b1100 V
b1100 D"
b1100 G"
b1100 (
b1100 /
b1100 2
b1100 @
b1100 \
b1100 e
b1100 /"
b1100 B"
b1100 c
b1100 p
b1100 ,"
b1100 g
b1100 j
b1100 n
b1100 |
b1100 '"
b1100 )"
b11111111111111111111111111110011 y
b11111111111111111111111111110011 %"
b1100 m
b1100 b
b1100 k
b1100 t
b1100 `
b1100 x
b1100 $"
b1100 _
b1100 w
b1100 !"
b11111111111111111111111111110100 d
b11111111111111111111111111110100 r
bx &
bx +
bx 1
bx 8
bx Q
bx I"
bx M"
b11 P
b11 H"
b11 R"
b1100 R
b1100 f
b1100 u
b1100 O"
b110000 T
b110000 2"
b110000 8"
b1000 Y
b1000 ?"
b1000 @"
b1100 B
b1100 G
b11000000000000110000 >"
b11 F"
b11 P"
b1100 U
b1100 3"
b1100 L"
b1100 N"
b1100 K"
b1000 X
b1000 <"
b1000 ="
b100000000000110000000000001100 .
b100000000000110000000000001100 4
b100000000000110000000000001100 5
b100000000000110000000000001100 N
b1 3
b111000 Z
b111000 9"
b111000 ;"
b1000 W
b1000 5"
b1000 7"
b1000 :"
b100 -
b100 <
b100 [
b100 6"
b100 A"
1)
#35
0)
#40
b11 V
b11 D"
b11 G"
b11 (
b11 /
b11 2
b11 @
b11 \
b11 e
b11 /"
b11 B"
b100 a
b100 {
b100 +"
b100 -"
b11 c
b11 p
b11 ,"
b11111111111111111111111111111011 |
b11111111111111111111111111111011 '"
b11111111111111111111111111111011 )"
b0 y
b0 %"
b100 }
b100 #"
b100 ("
b11 g
b11 j
b11 n
b11111111111111111111111111110111 b
b11111111111111111111111111110111 k
b11111111111111111111111111110111 t
b11111111111111111111111111111011 `
b11111111111111111111111111111011 x
b11111111111111111111111111111011 $"
b11111111111111111111111111111111 _
b11111111111111111111111111111111 w
b11111111111111111111111111111111 !"
b100 ]
b100 v
b100 ~
b1001 d
b1001 r
b100000000000000000000000000000011 m
b1100 S
b1100 i
b1100 l
b1100 J"
b111 P
b111 H"
b111 R"
b11111111111111111111111111110111 R
b11111111111111111111111111110111 f
b11111111111111111111111111110111 u
b11111111111111111111111111110111 O"
b11111111111111111111111111011100 T
b11111111111111111111111111011100 2"
b11111111111111111111111111011100 8"
b1100 Y
b1100 ?"
b1100 @"
b110111 B
b110111 G
b1100111111111111111011100 >"
b11 E"
b111 F"
b111 P"
b11111 Q"
b11111111111111111111111111110111 U
b11111111111111111111111111110111 3"
b11111111111111111111111111110111 L"
b11111111111111111111111111110111 N"
b1111111111110111 K"
bx &
bx +
bx 1
bx 8
bx Q
bx I"
bx M"
b1100 X
b1100 <"
b1100 ="
b100000011001111111111111110111 .
b100000011001111111111111110111 4
b100000011001111111111111110111 5
b100000011001111111111111110111 N
b10 3
b11111111111111111111111111101000 Z
b11111111111111111111111111101000 9"
b11111111111111111111111111101000 ;"
b1100 W
b1100 5"
b1100 7"
b1100 :"
b1000 -
b1000 <
b1000 [
b1000 6"
b1000 A"
1)
#45
0)
#50
1""
1&"
b1 z
1."
b101 A
b101 F
b101 I
b101 M
b101 ^
1:
0?
b10 E
b10 H
b10 K
b110000010 L
b111 V
b111 D"
b111 G"
b111 (
b111 /
b111 2
b111 @
b111 \
b111 e
b111 /"
b111 B"
b111 a
b111 {
b111 +"
b111 -"
b1000 c
b1000 p
b1000 ,"
b0 h
b0 q
b0 1"
00"
b11111111111111111111111111111000 |
b11111111111111111111111111111000 '"
b11111111111111111111111111111000 )"
b11111111111111111111111111111000 y
b11111111111111111111111111111000 %"
b111 }
b111 #"
b111 ("
b1000 g
b1000 j
b1000 n
b101 b
b101 k
b101 t
b110 `
b110 x
b110 $"
b111 _
b111 w
b111 !"
b1 ]
b1 v
b1 ~
b11111111111111111111111111111011 d
b11111111111111111111111111111011 r
b1000 m
b11 S
b11 i
b11 l
b11 J"
b100 P
b100 H"
b100 R"
b101 R
b101 f
b101 u
b101 O"
b1000000010010100 T
b1000000010010100 2"
b1000000010010100 8"
b10000 Y
b10000 ?"
b10000 @"
b0 C
b0 J
b100101 B
b100101 G
b11100010001000000010010100 >"
b111 E"
b10 F"
b10 P"
b100 Q"
b10000000100101 U
b10000000100101 3"
b10000000100101 L"
b10000000100101 N"
b10000000100101 K"
b101 &
b101 +
b101 1
b101 8
b101 Q
b101 I"
b101 M"
b10000 X
b10000 <"
b10000 ="
b111000100010000000100101 .
b111000100010000000100101 4
b111000100010000000100101 5
b111000100010000000100101 N
b11 3
b1000000010100100 Z
b1000000010100100 9"
b1000000010100100 ;"
b10000 W
b10000 5"
b10000 7"
b10000 :"
b1100 -
b1100 <
b1100 [
b1100 6"
b1100 A"
1)
#55
0)
#60
0""
0&"
b0 z
b100 A
b100 F
b100 I
b100 M
b100 ^
b100 V
b100 D"
b100 G"
b100 (
b100 /
b100 2
b100 @
b100 \
b100 e
b100 /"
b100 B"
b1011 |
b1011 '"
b1011 )"
b100 a
b100 {
b100 +"
b100 -"
b10011 c
b10011 p
b10011 ,"
b11111111111111111111111111110000 y
b11111111111111111111111111110000 %"
b100 }
b100 #"
b100 ("
b111 b
b111 k
b111 t
b11111111111111111111111111111001 d
b11111111111111111111111111111001 r
b10011 g
b10011 j
b10011 n
b1011 `
b1011 x
b1011 $"
b1111 _
b1111 w
b1111 !"
b100 ]
b100 v
b100 ~
b111 R
b111 f
b111 u
b111 O"
b10011 m
b1100 S
b1100 i
b1100 l
b1100 J"
b111 &
b111 +
b111 1
b111 8
b111 Q
b111 I"
b111 M"
b101 P
b101 H"
b101 R"
b1010000010010000 T
b1010000010010000 2"
b1010000010010000 8"
b10100 Y
b10100 ?"
b10100 @"
b100100 B
b100100 G
b1100100001010000010010000 >"
b11 E"
b100 F"
b100 P"
b101 Q"
b10100000100100 U
b10100000100100 3"
b10100000100100 L"
b10100000100100 N"
b10100000100100 K"
b10100 X
b10100 <"
b10100 ="
b11001000010100000100100 .
b11001000010100000100100 4
b11001000010100000100100 5
b11001000010100000100100 N
b100 3
b1010000010100100 Z
b1010000010100100 9"
b1010000010100100 ;"
b10100 W
b10100 5"
b10100 7"
b10100 :"
b10000 -
b10000 <
b10000 [
b10000 6"
b10000 A"
1)
#65
0)
#70
b1011 V
b1011 D"
b1011 G"
b1011 (
b1011 /
b1011 2
b1011 @
b1011 \
b1011 e
b1011 /"
b1011 B"
0."
b0 A
b0 F
b0 I
b0 M
b0 ^
b1011 c
b1011 p
b1011 ,"
b11 |
b11 '"
b11 )"
b11111111111111111111111111111000 y
b11111111111111111111111111111000 %"
b1011 g
b1011 j
b1011 n
b11 `
b11 x
b11 $"
b111 _
b111 w
b111 !"
b1011 m
b100 S
b100 i
b100 l
b100 J"
b1010000010000000 T
b1010000010000000 2"
b1010000010000000 8"
b11000 Y
b11000 ?"
b11000 @"
b100000 B
b100000 G
b10100100001010000010000000 >"
b101 E"
b10100000100000 U
b10100000100000 3"
b10100000100000 L"
b10100000100000 N"
b10100000100000 K"
b11000 X
b11000 <"
b11000 ="
b101001000010100000100000 .
b101001000010100000100000 4
b101001000010100000100000 5
b101001000010100000100000 N
b101 3
b1010000010011000 Z
b1010000010011000 9"
b1010000010011000 ;"
b11000 W
b11000 5"
b11000 7"
b11000 :"
b10100 -
b10100 <
b10100 [
b10100 6"
b10100 A"
1)
#75
0)
#80
0;
b0 h
b0 q
b0 1"
00"
07
0""
0&"
1*"
09
0:
1D
b1 E
b1 H
b1 K
1s
0o
b10 z
0."
b100001 L
b10 A
b10 F
b10 I
b10 M
b10 ^
b1000 V
b1000 D"
b1000 G"
b11111111111111111111111111111101 b
b11111111111111111111111111111101 k
b11111111111111111111111111111101 t
b11111111111111111111111111111101 d
b11111111111111111111111111111101 r
b1000 (
b1000 /
b1000 2
b1000 @
b1000 \
b1000 e
b1000 /"
b1000 B"
b1000 a
b1000 {
b1000 +"
b1000 -"
b11 R
b11 f
b11 u
b11 O"
b1000 c
b1000 p
b1000 ,"
b1000 |
b1000 '"
b1000 )"
b11111111111111111111111111110100 y
b11111111111111111111111111110100 %"
b11 }
b11 #"
b11 ("
b11 &
b11 +
b11 1
b11 8
b11 Q
b11 I"
b11 M"
b111 P
b111 H"
b111 R"
b101000 T
b101000 2"
b101000 8"
b1000 g
b1000 j
b1000 n
b1000 `
b1000 x
b1000 $"
b1011 _
b1011 w
b1011 !"
b11 ]
b11 v
b11 ~
b11100 Y
b11100 ?"
b11100 @"
b100 C
b100 J
b1010 B
b1010 G
b10100111000000000000101000 >"
b111 F"
b111 P"
b0 Q"
b1010 U
b1010 3"
b1010 L"
b1010 N"
b1010 K"
b100000000000000000000000000001000 m
b1011 S
b1011 i
b1011 l
b1011 J"
b11100 X
b11100 <"
b11100 ="
b10000101001110000000000001010 .
b10000101001110000000000001010 4
b10000101001110000000000001010 5
b10000101001110000000000001010 N
b110 3
b1000100 Z
b1000100 9"
b1000100 ;"
b11100 W
b11100 5"
b11100 7"
b11100 :"
b11000 -
b11000 <
b11000 [
b11000 6"
b11000 A"
1)
#85
0)
#90
17
1o
b1010 A
b1010 F
b1010 I
b1010 M
b1010 ^
19
1:
0D
b10 E
b10 H
b10 K
b110000010 L
b0 V
b0 D"
b0 G"
b0 (
b0 /
b0 2
b0 @
b0 \
b0 e
b0 /"
b0 B"
b1011 a
b1011 {
b1011 +"
b1011 -"
b11111111111111111111111111111001 b
b11111111111111111111111111111001 k
b11111111111111111111111111111001 t
b0 c
b0 p
b0 ,"
b1011 |
b1011 '"
b1011 )"
b11111111111111111111111111110000 y
b11111111111111111111111111110000 %"
b100 }
b100 #"
b100 ("
b11111111111111111111111111111001 d
b11111111111111111111111111111001 r
b101 g
b101 j
b101 n
b1011 `
b1011 x
b1011 $"
b1111 _
b1111 w
b1111 !"
b100 ]
b100 v
b100 ~
b111 R
b111 f
b111 u
b111 O"
b100000000000000000000000000000101 m
b1100 S
b1100 i
b1100 l
b1100 J"
b111 &
b111 +
b111 1
b111 8
b111 Q
b111 I"
b111 M"
b100 P
b100 H"
b100 R"
b1000000010101000 T
b1000000010101000 2"
b1000000010101000 8"
b100000 Y
b100000 ?"
b100000 @"
b0 C
b0 J
b101010 B
b101010 G
b1100100001000000010101000 >"
b11 E"
b100 F"
b100 P"
b100 Q"
b10000000101010 U
b10000000101010 3"
b10000000101010 L"
b10000000101010 N"
b10000000101010 K"
b100000 X
b100000 <"
b100000 ="
b11001000010000000101010 .
b11001000010000000101010 4
b11001000010000000101010 5
b11001000010000000101010 N
b111 3
b1000000011001000 Z
b1000000011001000 9"
b1000000011001000 ;"
b100000 W
b100000 5"
b100000 7"
b100000 :"
b11100 -
b11100 <
b11100 [
b11100 6"
b11100 A"
1)
#95
0)
#100
1;
0""
0&"
1*"
09
0:
1D
b1 E
b1 H
b1 K
1s
0o
b10 z
0."
b100001 L
b10 A
b10 F
b10 I
b10 M
b10 ^
b0 V
b0 D"
b0 G"
17
b0 (
b0 /
b0 2
b0 @
b0 \
b0 e
b0 /"
b0 B"
b0 c
b0 p
b0 ,"
b0 a
b0 {
b0 +"
b0 -"
b0 h
b0 q
b0 1"
00"
b0 |
b0 '"
b0 )"
b11111111111111111111111111111111 y
b11111111111111111111111111111111 %"
b0 }
b0 #"
b0 ("
b0 b
b0 k
b0 t
b0 g
b0 j
b0 n
b0 `
b0 x
b0 $"
b0 _
b0 w
b0 !"
b0 ]
b0 v
b0 ~
b0 d
b0 r
b0 m
b0 S
b0 i
b0 l
b0 J"
b0 P
b0 H"
b0 R"
b100 T
b100 2"
b100 8"
b0 R
b0 f
b0 u
b0 O"
b101000 Y
b101000 ?"
b101000 @"
b100 C
b100 J
b1 B
b1 G
b10000000000000000000000100 >"
b100 E"
b0 F"
b0 P"
b0 Q"
b1 U
b1 3"
b1 L"
b1 N"
b1 K"
b0 &
b0 +
b0 1
b0 8
b0 Q
b0 I"
b0 M"
b101000 X
b101000 <"
b101000 ="
b10000100000000000000000000001 .
b10000100000000000000000000001 4
b10000100000000000000000000001 5
b10000100000000000000000000001 N
b1000 3
b101000 Z
b101000 9"
b101000 ;"
b100100 W
b100100 5"
b100100 7"
b100100 :"
b100000 -
b100000 <
b100000 [
b100000 6"
b100000 A"
1)
#105
0)
#110
1o
b1010 A
b1010 F
b1010 I
b1010 M
b1010 ^
19
1:
0D
b10 E
b10 H
b10 K
b110000010 L
0;
b1 h
b1 q
b1 1"
10"
b1 V
b1 D"
b1 G"
07
b1 (
b1 /
b1 2
b1 @
b1 \
b1 e
b1 /"
b1 B"
b110 a
b110 {
b110 +"
b110 -"
b11111111111111111111111111111011 b
b11111111111111111111111111111011 k
b11111111111111111111111111111011 t
b1 c
b1 p
b1 ,"
b110 |
b110 '"
b110 )"
b11111111111111111111111111111000 y
b11111111111111111111111111111000 %"
b1 }
b1 #"
b1 ("
b11111111111111111111111111111011 d
b11111111111111111111111111111011 r
b11111111111111111111111111111110 g
b11111111111111111111111111111110 j
b11111111111111111111111111111110 n
b110 `
b110 x
b110 $"
b111 _
b111 w
b111 !"
b1 ]
b1 v
b1 ~
b101 R
b101 f
b101 u
b101 O"
b11111111111111111111111111111110 m
b11 S
b11 i
b11 l
b11 J"
b101 &
b101 +
b101 1
b101 8
b101 Q
b101 I"
b101 M"
b100 P
b100 H"
b100 R"
b1000000010101000 T
b1000000010101000 2"
b1000000010101000 8"
b101100 Y
b101100 ?"
b101100 @"
b0 C
b0 J
b101010 B
b101010 G
b11100010001000000010101000 >"
b111 E"
b10 F"
b10 P"
b100 Q"
b10000000101010 U
b10000000101010 3"
b10000000101010 L"
b10000000101010 N"
b10000000101010 K"
b101100 X
b101100 <"
b101100 ="
b111000100010000000101010 .
b111000100010000000101010 4
b111000100010000000101010 5
b111000100010000000101010 N
b1010 3
b1000000011010100 Z
b1000000011010100 9"
b1000000011010100 ;"
b101100 W
b101100 5"
b101100 7"
b101100 :"
b101000 -
b101000 <
b101000 [
b101000 6"
b101000 A"
1)
#115
0)
#120
b0 h
b0 q
b0 1"
00"
b1100 V
b1100 D"
b1100 G"
b1100 (
b1100 /
b1100 2
b1100 @
b1100 \
b1100 e
b1100 /"
b1100 B"
b1100 c
b1100 p
b1100 ,"
0*"
0s
0o
b0 z
b0 A
b0 F
b0 I
b0 M
b0 ^
b1 a
b1 {
b1 +"
b1 -"
b1011 b
b1011 k
b1011 t
b1010 |
b1010 '"
b1010 )"
b11111111111111111111111111110100 y
b11111111111111111111111111110100 %"
b11111111111111111111111111110101 d
b11111111111111111111111111110101 r
b1100 g
b1100 j
b1100 n
b1010 `
b1010 x
b1010 $"
b1011 _
b1011 w
b1011 !"
b1011 R
b1011 f
b1011 u
b1011 O"
b1100 m
b1 S
b1 i
b1 l
b1 J"
b1011 &
b1011 +
b1011 1
b1011 8
b1011 Q
b1011 I"
b1011 M"
b111 P
b111 H"
b111 R"
b1110000010000000 T
b1110000010000000 2"
b1110000010000000 8"
b110000 Y
b110000 ?"
b110000 @"
b100000 B
b100000 G
b10000101001110000010000000 >"
b100 E"
b101 F"
b101 P"
b111 Q"
b11100000100000 U
b11100000100000 3"
b11100000100000 L"
b11100000100000 N"
b11100000100000 K"
b110000 X
b110000 <"
b110000 ="
b100001010011100000100000 .
b100001010011100000100000 4
b100001010011100000100000 5
b100001010011100000100000 N
b1011 3
b1110000010110000 Z
b1110000010110000 9"
b1110000010110000 ;"
b110000 W
b110000 5"
b110000 7"
b110000 :"
b101100 -
b101100 <
b101100 [
b101100 6"
b101100 A"
1)
#125
0)
#130
1*"
1s
b10 z
b10 A
b10 F
b10 I
b10 M
b10 ^
b111 V
b111 D"
b111 G"
b111 (
b111 /
b111 2
b111 @
b111 \
b111 e
b111 /"
b111 B"
b1001 a
b1001 {
b1001 +"
b1001 -"
b111 c
b111 p
b111 ,"
b1001 |
b1001 '"
b1001 )"
b11111111111111111111111111110010 y
b11111111111111111111111111110010 %"
b100 }
b100 #"
b100 ("
b11111111111111111111111111111011 b
b11111111111111111111111111111011 k
b11111111111111111111111111111011 t
b11111111111111111111111111111011 d
b11111111111111111111111111111011 r
b111 g
b111 j
b111 n
b1001 `
b1001 x
b1001 $"
b1101 _
b1101 w
b1101 !"
b100 ]
b100 v
b100 ~
b101 R
b101 f
b101 u
b101 O"
b100000000000000000000000000000111 m
b1100 S
b1100 i
b1100 l
b1100 J"
b101 &
b101 +
b101 1
b101 8
b101 Q
b101 I"
b101 M"
b1110000010001000 T
b1110000010001000 2"
b1110000010001000 8"
b110100 Y
b110100 ?"
b110100 @"
b100010 B
b100010 G
b11100010001110000010001000 >"
b111 E"
b10 F"
b10 P"
b11100000100010 U
b11100000100010 3"
b11100000100010 L"
b11100000100010 N"
b11100000100010 K"
b110100 X
b110100 <"
b110100 ="
b111000100011100000100010 .
b111000100011100000100010 4
b111000100011100000100010 5
b111000100011100000100010 N
b1100 3
b1110000010111100 Z
b1110000010111100 9"
b1110000010111100 ;"
b110100 W
b110100 5"
b110100 7"
b110100 :"
b110000 -
b110000 <
b110000 [
b110000 6"
b110000 A"
1)
#135
0)
#140
b0 h
b0 q
b0 1"
00"
07
0""
0&"
0*"
09
0:
1?
1'
b0 E
b0 H
b0 K
0s
0o
b0 z
0."
b1010000 L
b0 A
b0 F
b0 I
b0 M
b0 ^
b1000100 b
b1000100 k
b1000100 t
b1010000 V
b1010000 D"
b1010000 G"
b11111111111111111111111110111100 d
b11111111111111111111111110111100 r
b1010000 (
b1010000 /
b1010000 2
b1010000 @
b1010000 \
b1010000 e
b1010000 /"
b1010000 B"
b100 a
b100 {
b100 +"
b100 -"
b1000100 R
b1000100 f
b1000100 u
b1000100 O"
b1010000 c
b1010000 p
b1010000 ,"
b1001000 |
b1001000 '"
b1001000 )"
b11111111111111111111111110110011 y
b11111111111111111111111110110011 %"
b100 }
b100 #"
b100 ("
b111 &
b111 +
b111 1
b111 8
b111 Q
b111 I"
b111 M"
b111 P
b111 H"
b111 R"
b100010000 T
b100010000 2"
b100010000 8"
b1010000 g
b1010000 j
b1010000 n
b1001000 `
b1001000 x
b1001000 $"
b1001100 _
b1001100 w
b1001100 !"
b100 ]
b100 v
b100 ~
b111000 Y
b111000 ?"
b111000 @"
b101011 C
b101011 J
b100 B
b100 G
b1100111000000000100010000 >"
b11 E"
b111 F"
b111 P"
b0 Q"
b1000100 U
b1000100 3"
b1000100 L"
b1000100 N"
b1000100 K"
b1010000 m
b1100 S
b1100 i
b1100 l
b1100 J"
b111000 X
b111000 <"
b111000 ="
b10101100011001110000000001000100 .
b10101100011001110000000001000100 4
b10101100011001110000000001000100 5
b10101100011001110000000001000100 N
b1101 3
b101001000 Z
b101001000 9"
b101001000 ;"
b111000 W
b111000 5"
b111000 7"
b111000 :"
b110100 -
b110100 <
b110100 [
b110100 6"
b110100 A"
1)
#145
0)
#150
b111 V
b111 D"
b111 G"
19
0'
1=
b101001000 L
b0 a
b0 {
b0 +"
b0 -"
b1010000 |
b1010000 '"
b1010000 )"
b11111111111111111111111110101111 y
b11111111111111111111111110101111 %"
b0 }
b0 #"
b0 ("
b1010000 b
b1010000 k
b1010000 t
b1010000 `
b1010000 x
b1010000 $"
b1010000 _
b1010000 w
b1010000 !"
b0 ]
b0 v
b0 ~
b11111111111111111111111110110000 d
b11111111111111111111111110110000 r
b1010000 m
b0 S
b0 i
b0 l
b0 J"
b101 &
b101 +
b101 1
b101 8
b101 Q
b101 I"
b101 M"
b10 P
b10 H"
b10 R"
b1010000 R
b1010000 f
b1010000 u
b1010000 O"
b101000000 T
b101000000 2"
b101000000 8"
b111100 Y
b111100 ?"
b111100 @"
b100011 C
b100011 J
b10000 B
b10000 G
b10000000000101000000 >"
b0 E"
b10 F"
b10 P"
b1010000 U
b1010000 3"
b1010000 L"
b1010000 N"
b1010000 K"
b111100 X
b111100 <"
b111100 ="
b10001100000000100000000001010000 .
b10001100000000100000000001010000 4
b10001100000000100000000001010000 5
b10001100000000100000000001010000 N
b1110 3
b111 ,
b111 0
b111 6
b111 O
b111 C"
b101111100 Z
b101111100 9"
b101111100 ;"
b111100 W
b111100 5"
b111100 7"
b111100 :"
b111000 -
b111000 <
b111000 [
b111000 6"
b111000 A"
1)
#155
0)
